…
``` r
pups_data = janitor::clean_names(pups_data)
```

## Select variables

``` r
select(litters_df, group: gd_of_birth)
```

    ## # A tibble: 49 × 5
    ##    group litter_number   gd0_weight gd18_weight gd_of_birth
    ##    <chr> <chr>                <dbl>       <dbl>       <dbl>
    ##  1 Con7  #85                   19.7        34.7          20
    ##  2 Con7  #1/2/95/2             27          42            19
    ##  3 Con7  #5/5/3/83/3-3         26          41.4          19
    ##  4 Con7  #5/4/2/95/2           28.5        44.1          19
    ##  5 Con7  #4/2/95/3-3           NA          NA            20
    ##  6 Con7  #2/2/95/3-2           NA          NA            20
    ##  7 Con7  #1/5/3/83/3-3/2       NA          NA            20
    ##  8 Con8  #3/83/3-3             NA          NA            20
    ##  9 Con8  #2/95/3               NA          NA            20
    ## 10 Con8  #3/5/2/2/95           28.5        NA            20
    ## # … with 39 more rows

## Select certain columns you’d like to remove:

``` r
select(litters_df, -pups_survive)
```

    ## # A tibble: 49 × 7
    ##    group litter_number   gd0_weight gd18_weight gd_of_birth pups_born_…¹ pups_…²
    ##    <chr> <chr>                <dbl>       <dbl>       <dbl>        <dbl>   <dbl>
    ##  1 Con7  #85                   19.7        34.7          20            3       4
    ##  2 Con7  #1/2/95/2             27          42            19            8       0
    ##  3 Con7  #5/5/3/83/3-3         26          41.4          19            6       0
    ##  4 Con7  #5/4/2/95/2           28.5        44.1          19            5       1
    ##  5 Con7  #4/2/95/3-3           NA          NA            20            6       0
    ##  6 Con7  #2/2/95/3-2           NA          NA            20            6       0
    ##  7 Con7  #1/5/3/83/3-3/2       NA          NA            20            9       0
    ##  8 Con8  #3/83/3-3             NA          NA            20            9       1
    ##  9 Con8  #2/95/3               NA          NA            20            8       0
    ## 10 Con8  #3/5/2/2/95           28.5        NA            20            8       0
    ## # … with 39 more rows, and abbreviated variable names ¹​pups_born_alive,
    ## #   ²​pups_dead_birth

## Renaming

``` r
select(litters_df, GROUP = group, LiTter_NuMbEr = litter_number)
```

    ## # A tibble: 49 × 2
    ##    GROUP LiTter_NuMbEr  
    ##    <chr> <chr>          
    ##  1 Con7  #85            
    ##  2 Con7  #1/2/95/2      
    ##  3 Con7  #5/5/3/83/3-3  
    ##  4 Con7  #5/4/2/95/2    
    ##  5 Con7  #4/2/95/3-3    
    ##  6 Con7  #2/2/95/3-2    
    ##  7 Con7  #1/5/3/83/3-3/2
    ##  8 Con8  #3/83/3-3      
    ##  9 Con8  #2/95/3        
    ## 10 Con8  #3/5/2/2/95    
    ## # … with 39 more rows

``` r
rename(litters_df, GROUP = group, LiTtEr_NuMbEr = litter_number)
```

    ## # A tibble: 49 × 8
    ##    GROUP LiTtEr_NuMbEr   gd0_weight gd18_weight gd_of_…¹ pups_…² pups_…³ pups_…⁴
    ##    <chr> <chr>                <dbl>       <dbl>    <dbl>   <dbl>   <dbl>   <dbl>
    ##  1 Con7  #85                   19.7        34.7       20       3       4       3
    ##  2 Con7  #1/2/95/2             27          42         19       8       0       7
    ##  3 Con7  #5/5/3/83/3-3         26          41.4       19       6       0       5
    ##  4 Con7  #5/4/2/95/2           28.5        44.1       19       5       1       4
    ##  5 Con7  #4/2/95/3-3           NA          NA         20       6       0       6
    ##  6 Con7  #2/2/95/3-2           NA          NA         20       6       0       4
    ##  7 Con7  #1/5/3/83/3-3/2       NA          NA         20       9       0       9
    ##  8 Con8  #3/83/3-3             NA          NA         20       9       1       8
    ##  9 Con8  #2/95/3               NA          NA         20       8       0       8
    ## 10 Con8  #3/5/2/2/95           28.5        NA         20       8       0       8
    ## # … with 39 more rows, and abbreviated variable names ¹​gd_of_birth,
    ## #   ²​pups_born_alive, ³​pups_dead_birth, ⁴​pups_survive

## Helper functions within select

``` r
select(litters_df, starts_with("gd"))
```

    ## # A tibble: 49 × 3
    ##    gd0_weight gd18_weight gd_of_birth
    ##         <dbl>       <dbl>       <dbl>
    ##  1       19.7        34.7          20
    ##  2       27          42            19
    ##  3       26          41.4          19
    ##  4       28.5        44.1          19
    ##  5       NA          NA            20
    ##  6       NA          NA            20
    ##  7       NA          NA            20
    ##  8       NA          NA            20
    ##  9       NA          NA            20
    ## 10       28.5        NA            20
    ## # … with 39 more rows

``` r
select(litters_df, ends_with("weight"))
```

    ## # A tibble: 49 × 2
    ##    gd0_weight gd18_weight
    ##         <dbl>       <dbl>
    ##  1       19.7        34.7
    ##  2       27          42  
    ##  3       26          41.4
    ##  4       28.5        44.1
    ##  5       NA          NA  
    ##  6       NA          NA  
    ##  7       NA          NA  
    ##  8       NA          NA  
    ##  9       NA          NA  
    ## 10       28.5        NA  
    ## # … with 39 more rows

## Using `everything()`, which is handy for reorganizing columns without discarding anything

``` r
select(litters_df, litter_number, pups_survive, everything())
```

    ## # A tibble: 49 × 8
    ##    litter_number   pups_survive group gd0_weight gd18_…¹ gd_of…² pups_…³ pups_…⁴
    ##    <chr>                  <dbl> <chr>      <dbl>   <dbl>   <dbl>   <dbl>   <dbl>
    ##  1 #85                        3 Con7        19.7    34.7      20       3       4
    ##  2 #1/2/95/2                  7 Con7        27      42        19       8       0
    ##  3 #5/5/3/83/3-3              5 Con7        26      41.4      19       6       0
    ##  4 #5/4/2/95/2                4 Con7        28.5    44.1      19       5       1
    ##  5 #4/2/95/3-3                6 Con7        NA      NA        20       6       0
    ##  6 #2/2/95/3-2                4 Con7        NA      NA        20       6       0
    ##  7 #1/5/3/83/3-3/2            9 Con7        NA      NA        20       9       0
    ##  8 #3/83/3-3                  8 Con8        NA      NA        20       9       1
    ##  9 #2/95/3                    8 Con8        NA      NA        20       8       0
    ## 10 #3/5/2/2/95                8 Con8        28.5    NA        20       8       0
    ## # … with 39 more rows, and abbreviated variable names ¹​gd18_weight,
    ## #   ²​gd_of_birth, ³​pups_born_alive, ⁴​pups_dead_birth
…
## Drop NAs

\*`drop_na(litters_data)`

## Mutate

``` r
mutate(litters_df,
       wt_gain = gd18_weight - gd0_weight,
       group = str_to_lower(group))
```

    ## # A tibble: 49 × 9
    ##    group litter_number   gd0_w…¹ gd18_…² gd_of…³ pups_…⁴ pups_…⁵ pups_…⁶ wt_gain
    ##    <chr> <chr>             <dbl>   <dbl>   <dbl>   <dbl>   <dbl>   <dbl>   <dbl>
    ##  1 con7  #85                19.7    34.7      20       3       4       3    15  
    ##  2 con7  #1/2/95/2          27      42        19       8       0       7    15  
    ##  3 con7  #5/5/3/83/3-3      26      41.4      19       6       0       5    15.4
    ##  4 con7  #5/4/2/95/2        28.5    44.1      19       5       1       4    15.6
    ##  5 con7  #4/2/95/3-3        NA      NA        20       6       0       6    NA  
    ##  6 con7  #2/2/95/3-2        NA      NA        20       6       0       4    NA  
    ##  7 con7  #1/5/3/83/3-3/2    NA      NA        20       9       0       9    NA  
    ##  8 con8  #3/83/3-3          NA      NA        20       9       1       8    NA  
    ##  9 con8  #2/95/3            NA      NA        20       8       0       8    NA  
    ## 10 con8  #3/5/2/2/95        28.5    NA        20       8       0       8    NA  
    ## # … with 39 more rows, and abbreviated variable names ¹​gd0_weight,
    ## #   ²​gd18_weight, ³​gd_of_birth, ⁴​pups_born_alive, ⁵​pups_dead_birth,
    ## #   ⁶​pups_survive
…
